sim/tb_rv32i_cpu.vcd
$date
	Sun Apr  5 16:35:15 2026
$end
$version
	Icarus Verilog
$end
$timescale
	1s
$end
$scope module tb_rv32i_cpu $end
$var parameter 32 ! EXPECTED_FINAL_PC $end
$var parameter 32 " NUM_INSTR_EXECUTED $end
$var reg 1 # clk_w $end
$var reg 32 $ imem_write_addr_w [31:0] $end
$var reg 32 % imem_write_data_w [31:0] $end
$var reg 1 & imem_write_en_w $end
$var reg 1 ' rst_w $end
$var integer 32 ( pass_count_r [31:0] $end
$var integer 32 ) test_count_r [31:0] $end
$scope module u_rv32i_cpu $end
$var wire 1 # clk_i $end
$var wire 32 * imem_write_addr_i [31:0] $end
$var wire 32 + imem_write_data_i [31:0] $end
$var wire 1 & imem_write_en_i $end
$var wire 1 ' rst_i $end
$var wire 32 , rs2_data_w [31:0] $end
$var wire 5 - rs2_addr_w [4:0] $end
$var wire 32 . rs1_data_w [31:0] $end
$var wire 5 / rs1_addr_w [4:0] $end
$var wire 2 0 result_src_w [1:0] $end
$var wire 1 1 reg_write_w $end
$var wire 5 2 rd_addr_w [4:0] $end
$var wire 32 3 pc_plus4_w [31:0] $end
$var wire 32 4 pc_next_w [31:0] $end
$var wire 1 5 mem_write_w $end
$var wire 32 6 mem_read_data_w [31:0] $end
$var wire 32 7 instruction_w [31:0] $end
$var wire 32 8 immediate_w [31:0] $end
$var wire 3 9 funct3_w [2:0] $end
$var wire 1 : branch_w $end
$var wire 1 ; branch_taken_w $end
$var wire 3 < branch_op_w [2:0] $end
$var wire 1 = alu_src_b_w $end
$var wire 1 > alu_src_a_w $end
$var wire 32 ? alu_result_w [31:0] $end
$var wire 32 @ alu_operand_b_w [31:0] $end
$var wire 32 A alu_operand_a_w [31:0] $end
$var wire 4 B alu_op_w [3:0] $end
$var parameter 32 C DMEM_BASE $end
$var parameter 32 D DMEM_SIZE $end
$var parameter 32 E IMEM_SIZE $end
$var reg 32 F pc_r [31:0] $end
$var reg 32 G rd_data_w [31:0] $end
$scope module u_alu $end
$var wire 32 H operand_a_i [31:0] $end
$var wire 32 I operand_b_i [31:0] $end
$var wire 4 J alu_op_i [3:0] $end
$var reg 32 K alu_result_o [31:0] $end
$upscope $end
$scope module u_branch_unit $end
$var wire 1 ; branch_taken_o $end
$var wire 32 L rs2_data_i [31:0] $end
$var wire 32 M rs1_data_i [31:0] $end
$var wire 3 N branch_op_i [2:0] $end
$var wire 1 : branch_i $end
$var reg 1 O condition_met_w $end
$upscope $end
$scope module u_data_memory $end
$var wire 32 P addr_i [31:0] $end
$var wire 1 # clk_i $end
$var wire 32 Q write_data_i [31:0] $end
$var wire 32 R phys_addr_w [31:0] $end
$var wire 1 5 mem_write_i $end
$var wire 3 S funct3_i [2:0] $end
$var parameter 32 T DMEM_BASE $end
$var parameter 32 U MEM_SIZE $end
$var reg 32 V read_data_o [31:0] $end
$upscope $end
$scope module u_decoder $end
$var wire 3 W funct3_o [2:0] $end
$var wire 5 X rs2_addr_o [4:0] $end
$var wire 5 Y rs1_addr_o [4:0] $end
$var wire 5 Z rd_addr_o [4:0] $end
$var wire 7 [ opcode_w [6:0] $end
$var wire 32 \ instruction_i [31:0] $end
$var wire 7 ] funct7_w [6:0] $end
$var wire 3 ^ funct3_w [2:0] $end
$var reg 4 _ alu_op_o [3:0] $end
$var reg 1 > alu_src_a_o $end
$var reg 1 = alu_src_b_o $end
$var reg 1 : branch_o $end
$var reg 3 ` branch_op_o [2:0] $end
$var reg 1 5 mem_write_o $end
$var reg 1 1 reg_write_o $end
$var reg 2 a result_src_o [1:0] $end
$upscope $end
$scope module u_immediate_generator $end
$var wire 7 b opcode_w [6:0] $end
$var wire 32 c instruction_i [31:0] $end
$var reg 32 d immediate_o [31:0] $end
$upscope $end
$scope module u_instruction_memory $end
$var wire 32 e addr_i [31:0] $end
$var wire 1 # clk_i $end
$var wire 32 f instruction_o [31:0] $end
$var wire 32 g write_addr_i [31:0] $end
$var wire 32 h write_data_i [31:0] $end
$var wire 1 & write_en_i $end
$var parameter 32 i MEM_SIZE $end
$upscope $end
$scope module u_register_file $end
$var wire 1 # clk_i $end
$var wire 5 j rd_addr_i [4:0] $end
$var wire 32 k rd_data_i [31:0] $end
$var wire 1 1 reg_write_i $end
$var wire 5 l rs1_addr_i [4:0] $end
$var wire 32 m rs1_data_o [31:0] $end
$var wire 5 n rs2_addr_i [4:0] $end
$var wire 32 o rs2_data_o [31:0] $end
$var wire 1 ' rst_i $end
$scope begin $ivl_for_loop0 $end
$var integer 32 p i [31:0] $end
$upscope $end
$upscope $end
$upscope $end
$scope task check_mem $end
$upscope $end
$scope task check_pc $end
$upscope $end
$scope task check_reg $end
$upscope $end
$scope task load_smoke_program $end
$upscope $end
$scope task load_word $end
$upscope $end
$scope task verify_arch_state $end
$upscope $end
$upscope $end
$enddefinitions $end
$comment Show the parameter values. $end
$dumpall
b100000000 i
b100000000 U
b0 T
b100000000 E
b100000000 D
b0 C
b1011 "
b110000 !
$end
#0
$dumpvars
b0 p
bx o
bx n
bx m
bx l
bx k
bx j
b0 h
b0 g
bx f
bx e
b0 d
bx c
bx b
b0 a
b0 `
b0 _
bx ^
bx ]
bx \
bx [
bx Z
bx Y
bx X
bx W
b0 V
bx S
bx R
bx Q
bx P
xO
b0 N
bx M
bx L
bx K
b0 J
bx I
bx H
bx G
bx F
b0 B
bx A
bx @
bx ?
0>
0=
b0 <
0;
0:
bx 9
b0 8
bx 7
b0 6
05
bx 4
bx 3
bx 2
01
b0 0
bx /
bx .
bx -
bx ,
b0 +
b0 *
b0 )
b0 (
1'
0&
b0 %
b0 $
0#
$end
#5
b100 4
b100 3
b0 F
b0 e
b100000 p
1#
#6
1&
b10100000000000010010011 %
b10100000000000010010011 +
b10100000000000010010011 h
#10
0#
#15
b101 G
b101 k
b101 R
b101 ?
b101 K
b101 P
b101 8
b101 d
b101 @
b101 I
b0 A
b0 H
1O
bx 6
bx V
1=
11
b10011 b
b1 2
b1 Z
b1 j
b0 ,
b0 L
b0 Q
b0 o
b101 -
b101 X
b101 n
b0 .
b0 M
b0 m
b0 /
b0 Y
b0 l
b0 ]
b0 9
b0 S
b0 W
b0 ^
b10011 [
b10100000000000010010011 7
b10100000000000010010011 \
b10100000000000010010011 c
b10100000000000010010011 f
b100000 p
1#
#16
b101000000000000100010011 %
b101000000000000100010011 +
b101000000000000100010011 h
b100 $
b100 *
b100 g
1&
#20
0#
#25
b100000 p
1#
#26
b1000001000000110110011 %
b1000001000000110110011 +
b1000001000000110110011 h
b1000 $
b1000 *
b1000 g
1&
#30
0#
#35
b100000 p
1#
#36
b1000000000100010000001000110011 %
b1000000000100010000001000110011 +
b1000000000100010000001000110011 h
b1100 $
b1100 *
b1100 g
1&
#40
0#
#45
b100000 p
1#
#46
b1000001111001010110011 %
b1000001111001010110011 +
b1000001111001010110011 h
b10000 $
b10000 *
b10000 g
1&
#50
0#
#55
b100000 p
1#
#56
b1000001110001100110011 %
b1000001110001100110011 +
b1000001110001100110011 h
b10100 $
b10100 *
b10100 g
1&
#60
0#
#65
b100000 p
1#
#66
b1100000010000000100011 %
b1100000010000000100011 +
b1100000010000000100011 h
b11000 $
b11000 *
b11000 g
1&
#70
0#
#75
b100000 p
1#
#76
b10001110000011 %
b10001110000011 +
b10001110000011 h
b11100 $
b11100 *
b11100 g
1&
#80
0#
#85
b100000 p
1#
#86
b111100000000010000010011 %
b111100000000010000010011 +
b111100000000010000010011 h
b100000 $
b100000 *
b100000 g
1&
#90
0#
#95
b100000 p
1#
#96
b100000111000010001100011 %
b100000111000010001100011 +
b100000111000010001100011 h
b100100 $
b100100 *
b100100 g
1&
#100
0#
#105
b100000 p
1#
#106
b100000000010010010011 %
b100000000010010010011 +
b100000000010010010011 h
b101000 $
b101000 *
b101000 g
1&
#110
0#
#115
b100000 p
1#
#116
b1000000000010100010011 %
b1000000000010100010011 +
b1000000000010100010011 h
b101100 $
b101100 *
b101100 g
1&
#120
0#
#125
b100000 p
1#
#126
0'
0&
#130
0#
#135
b1010 G
b1010 k
b1010 R
b1010 ?
b1010 K
b1010 P
b1010 @
b1010 I
b10 2
b10 Z
b10 j
b1010 -
b1010 X
b1010 n
b1010 8
b1010 d
b1000 4
b101000000000000100010011 7
b101000000000000100010011 \
b101000000000000100010011 c
b101000000000000100010011 f
b1000 3
b100 F
b100 e
1#
#140
0#
#145
b1111 G
b1111 k
b1111 R
b1111 ?
b1111 K
b1111 P
b101 A
b101 H
0O
11
0=
b1010 @
b1010 I
b110011 b
b11 2
b11 Z
b11 j
b1010 ,
b1010 L
b1010 Q
b1010 o
b10 -
b10 X
b10 n
b101 .
b101 M
b101 m
b1 /
b1 Y
b1 l
b110011 [
b0 8
b0 d
b1100 4
b1000001000000110110011 7
b1000001000000110110011 \
b1000001000000110110011 c
b1000001000000110110011 f
b1100 3
b1000 F
b1000 e
1#
#150
0#
#155
b101 G
b101 k
b101 R
b101 ?
b101 K
b101 P
b101 @
b101 I
b1010 A
b1010 H
b1 B
b1 J
b1 _
11
b100 2
b100 Z
b100 j
b101 ,
b101 L
b101 Q
b101 o
b1 -
b1 X
b1 n
b1010 .
b1010 M
b1010 m
b10 /
b10 Y
b10 l
b100000 ]
b10000 4
b1000000000100010000001000110011 7
b1000000000100010000001000110011 \
b1000000000100010000001000110011 c
b1000000000100010000001000110011 f
b10000 3
b1100 F
b1100 e
1#
#160
0#
#165
b0 G
b0 k
b0 R
b0 ?
b0 K
b0 P
b1010 @
b1010 I
b101 A
b101 H
b0 6
b0 V
11
b10 B
b10 J
b10 _
b101 2
b101 Z
b101 j
b1010 ,
b1010 L
b1010 Q
b1010 o
b10 -
b10 X
b10 n
b101 .
b101 M
b101 m
b1 /
b1 Y
b1 l
b0 ]
b111 9
b111 S
b111 W
b111 ^
b10100 4
b1000001111001010110011 7
b1000001111001010110011 \
b1000001111001010110011 c
b1000001111001010110011 f
b10100 3
b10000 F
b10000 e
1#
#170
0#
#175
b1111 G
b1111 k
b1111 R
b1111 ?
b1111 K
b1111 P
11
b11 B
b11 J
b11 _
b110 2
b110 Z
b110 j
b110 9
b110 S
b110 W
b110 ^
b11000 4
b1000001110001100110011 7
b1000001110001100110011 \
b1000001110001100110011 c
b1000001110001100110011 f
b11000 3
b10100 F
b10100 e
1#
#180
0#
#185
b0 G
b0 k
b0 R
b0 ?
b0 K
b0 P
b0 @
b0 I
b0 A
b0 H
bx 6
bx V
1=
15
01
b0 B
b0 J
b0 _
b100011 b
b0 2
b0 Z
b0 j
b1111 ,
b1111 L
b1111 Q
b1111 o
b11 -
b11 X
b11 n
b0 .
b0 M
b0 m
b0 /
b0 Y
b0 l
b10 9
b10 S
b10 W
b10 ^
b100011 [
b11100 4
b1100000010000000100011 7
b1100000010000000100011 \
b1100000010000000100011 c
b1100000010000000100011 f
b11100 3
b11000 F
b11000 e
1#
#190
0#
#195
b1111 G
b1111 k
b0 R
b0 ?
b0 K
b0 P
1O
b10 0
b10 a
11
05
1=
b0 @
b0 I
b11 b
b111 2
b111 Z
b111 j
b0 ,
b0 L
b0 Q
b0 o
b0 -
b0 X
b0 n
b11 [
b0 8
b0 d
b100000 4
b10001110000011 7
b10001110000011 \
b10001110000011 c
b10001110000011 f
b1111 6
b1111 V
b100000 3
b11100 F
b11100 e
1#
#200
0#
#205
bx 6
bx V
b1111 R
b1111 ?
b1111 K
b1111 P
b0 0
b0 a
11
1=
b1111 @
b1111 I
b10011 b
b1000 2
b1000 Z
b1000 j
b1111 -
b1111 X
b1111 n
b0 9
b0 S
b0 W
b0 ^
b10011 [
b1111 8
b1111 d
b100100 4
b111100000000010000010011 7
b111100000000010000010011 \
b111100000000010000010011 c
b111100000000010000010011 f
b100100 3
b100000 F
b100000 e
1#
#210
0#
#215
b101100 G
b101100 k
1;
b101100 R
b101100 ?
b101100 K
b101100 P
b100100 A
b100100 H
1>
1:
01
1=
b1000 @
b1000 I
b1100011 b
b1111 ,
b1111 L
b1111 Q
b1111 o
b1000 -
b1000 X
b1000 n
b1111 .
b1111 M
b1111 m
b111 /
b111 Y
b111 l
b1100011 [
b1000 8
b1000 d
b101100 4
b100000111000010001100011 7
b100000111000010001100011 \
b100000111000010001100011 c
b100000111000010001100011 f
b101000 3
b100100 F
b100100 e
1#
#220
0#
#225
b0 6
b0 V
b110000 4
0;
b10 G
b10 k
0O
11
0:
1=
0>
b10 @
b10 I
b10 R
b10 ?
b10 K
b10 P
b10011 b
b1010 2
b1010 Z
b1010 j
b1010 ,
b1010 L
b1010 Q
b1010 o
b10 -
b10 X
b10 n
b0 .
b0 M
b0 m
b0 /
b0 Y
b0 l
b10011 [
b10 8
b10 d
b0 A
b0 H
b1000000000010100010011 7
b1000000000010100010011 \
b1000000000010100010011 c
b1000000000010100010011 f
b110000 3
b101100 F
b101100 e
1#
#230
0#
#235
bx G
bx k
bx R
bx ?
bx K
bx P
bx A
bx H
xO
01
0=
bx @
bx I
bx b
bx 2
bx Z
bx j
bx ,
bx L
bx Q
bx o
bx -
bx X
bx n
bx .
bx M
bx m
bx /
bx Y
bx l
bx ]
bx 9
bx S
bx W
bx ^
bx [
b0 8
b0 d
b110100 4
bx 7
bx \
bx c
bx f
b110100 3
b110000 F
b110000 e
1#
#236
b10000 (
b10000 )
